{
	"info": {
		"_postman_id": "ee17f11c-6d5f-4ef6-820c-8d3de48e597e",
		"name": "Admin",
		"schema": "https://schema.getpostman.com/json/collection/v2.1.0/collection.json",
		"_exporter_id": "26974172"
	},
	"item": [
		{
			"name": "Get All Books",
			"request": {
				"method": "GET",
				"header": [],
				"url": {
					"raw": "{{host}}/admin/books",
					"host": [
						"{{host}}"
					],
					"path": [
						"admin",
						"books"
					]
				}
			},
			"response": []
		},
		{
			"name": "Get All Overdue Books",
			"request": {
				"method": "GET",
				"header": [],
				"url": {
					"raw": "{{host}}/admin/books/overdue",
					"host": [
						"{{host}}"
					],
					"path": [
						"admin",
						"books",
						"overdue"
					]
				}
			},
			"response": []
		},
		{
			"name": "Create Book",
			"request": {
				"method": "POST",
				"header": [],
				"body": {
					"mode": "raw",
					"raw": "{\n    \"isbn\": \"123-4567890123\",\n    \"author\": \"Test Author\",\n    \"title\": \"Test Book Title\",\n    \"description\": \"Lorem ipsum dolor sit amet, consectetur adipiscing elit. Vestibulum elementum metus sit amet enim luctus gravida. Aenean vitae velit congue, congue lacus vel, fermentum orci. In urna elit, consectetur non sagittis non, hendrerit id elit. Vivamus eu ex vel elit dapibus dignissim.\"\n}",
					"options": {
						"raw": {
							"language": "json"
						}
					}
				},
				"url": {
					"raw": "{{host}}/admin/book",
					"host": [
						"{{host}}"
					],
					"path": [
						"admin",
						"book"
					]
				}
			},
			"response": []
		},
		{
			"name": "Delete Book By ID",
			"request": {
				"method": "DELETE",
				"header": [],
				"body": {
					"mode": "raw",
					"raw": "{\n    \"isbn\": \"123-4567890\",\n    \"author\": \"Test Author\",\n    \"title\": \"Test Book Title\",\n    \"description\": \"Lorem ipsum dolor sit amet, consectetur adipiscing elit. Vestibulum elementum metus sit amet enim luctus gravida. Aenean vitae velit congue, congue lacus vel, fermentum orci. In urna elit, consectetur non sagittis non, hendrerit id elit. Vivamus eu ex vel elit dapibus dignissim.\"\n}",
					"options": {
						"raw": {
							"language": "json"
						}
					}
				},
				"url": {
					"raw": "{{host}}/admin/book/4",
					"host": [
						"{{host}}"
					],
					"path": [
						"admin",
						"book",
						"4"
					]
				}
			},
			"response": []
		}
	]
}