{
	"id": "1ab3dace-b720-43f5-b481-7353775c094f",
	"name": "local",
	"values": [
		{
			"key": "host",
			"value": "http://localhost:3000/dev/",
			"type": "default",
			"enabled": true
		}
	],
	"_postman_variable_scope": "environment",
	"_postman_exported_at": "2023-10-29T01:22:05.339Z",
	"_postman_exported_using": "Postman/10.18.5"
}